Designs/Simulation-Waveforms/NTT2.vcd
$date
	Mon May 26 23:42:52 2025
$end
$version
	Icarus Verilog
$end
$timescale
	1s
$end
$scope module Dff $end
$var wire 32 ! Input [31:0] $end
$var wire 1 " clk $end
$var wire 1 # rst $end
$var parameter 32 $ DefualtValue $end
$var reg 32 % Output [31:0] $end
$upscope $end
$scope module TestBench $end
$var reg 32 & Dim0InputLane0 [31:0] $end
$var reg 32 ' Dim0InputLane1 [31:0] $end
$var reg 32 ( InternalRegisterEnableIndex [31:0] $end
$var reg 32 ) InternalRegisterInputValue0 [31:0] $end
$var reg 1 * clk $end
$var reg 1 + rst $end
$scope module dut $end
$var wire 32 , Dim0InputLane0 [31:0] $end
$var wire 32 - Dim0InputLane1 [31:0] $end
$var wire 32 . InternalRegisterEnableIndex [31:0] $end
$var wire 32 / InternalRegisterInputValue0 [31:0] $end
$var wire 32 0 PassThroughWires0Lane0 [31:0] $end
$var wire 32 1 PassThroughWires0Lane1 [31:0] $end
$var wire 1 * clk $end
$var wire 1 + rst $end
$scope begin Dim0IndexForLoopBlock[0] $end
$var wire 32 2 InDim0Lane1 [31:0] $end
$var wire 32 3 InDim0Lane0 [31:0] $end
$var parameter 2 4 Dim0Index $end
$var parameter 32 5 PECount $end
$scope begin genblk1 $end
$upscope $end
$scope module pe $end
$var wire 32 6 InDim0Lane0 [31:0] $end
$var wire 32 7 InDim0Lane1 [31:0] $end
$var wire 1 8 InternalRegisterEnable $end
$var wire 32 9 InternalRegisterInputValue0 [31:0] $end
$var wire 1 * clk $end
$var wire 1 + rst $end
$var parameter 32 : PECount $end
$var reg 32 ; InternalRegister0 [31:0] $end
$var reg 32 < OutDim0Lane0 [31:0] $end
$var reg 32 = OutDim0Lane1 [31:0] $end
$var reg 32 > PEValue [31:0] $end
$upscope $end
$upscope $end
$scope begin Dim0IndexForLoopBlock[1] $end
$var wire 32 ? InDim0Lane1 [31:0] $end
$var wire 32 @ InDim0Lane0 [31:0] $end
$var parameter 2 A Dim0Index $end
$var parameter 32 B PECount $end
$scope begin genblk1 $end
$upscope $end
$scope module pe $end
$var wire 32 C InDim0Lane0 [31:0] $end
$var wire 32 D InDim0Lane1 [31:0] $end
$var wire 1 E InternalRegisterEnable $end
$var wire 32 F InternalRegisterInputValue0 [31:0] $end
$var wire 1 * clk $end
$var wire 1 + rst $end
$var parameter 32 G PECount $end
$var reg 32 H InternalRegister0 [31:0] $end
$var reg 32 I OutDim0Lane0 [31:0] $end
$var reg 32 J OutDim0Lane1 [31:0] $end
$var reg 32 K PEValue [31:0] $end
$upscope $end
$upscope $end
$scope begin Dim0IndexForLoopBlock[2] $end
$var wire 32 L InDim0Lane1 [31:0] $end
$var wire 32 M InDim0Lane0 [31:0] $end
$var parameter 3 N Dim0Index $end
$var parameter 32 O PECount $end
$scope begin genblk1 $end
$upscope $end
$scope module pe $end
$var wire 32 P InDim0Lane0 [31:0] $end
$var wire 32 Q InDim0Lane1 [31:0] $end
$var wire 1 R InternalRegisterEnable $end
$var wire 32 S InternalRegisterInputValue0 [31:0] $end
$var wire 1 * clk $end
$var wire 1 + rst $end
$var parameter 32 T PECount $end
$var reg 32 U InternalRegister0 [31:0] $end
$var reg 32 V OutDim0Lane0 [31:0] $end
$var reg 32 W OutDim0Lane1 [31:0] $end
$var reg 32 X PEValue [31:0] $end
$upscope $end
$upscope $end
$scope begin Dim0IndexForLoopBlock[3] $end
$var wire 32 Y InDim0Lane1 [31:0] $end
$var wire 32 Z InDim0Lane0 [31:0] $end
$var parameter 3 [ Dim0Index $end
$var parameter 32 \ PECount $end
$scope begin genblk1 $end
$upscope $end
$scope module pe $end
$var wire 32 ] InDim0Lane0 [31:0] $end
$var wire 32 ^ InDim0Lane1 [31:0] $end
$var wire 1 _ InternalRegisterEnable $end
$var wire 32 ` InternalRegisterInputValue0 [31:0] $end
$var wire 1 * clk $end
$var wire 1 + rst $end
$var parameter 32 a PECount $end
$var reg 32 b InternalRegister0 [31:0] $end
$var reg 32 c OutDim0Lane0 [31:0] $end
$var reg 32 d OutDim0Lane1 [31:0] $end
$var reg 32 e PEValue [31:0] $end
$upscope $end
$upscope $end
$scope begin Dim0IndexForLoopBlock[4] $end
$var wire 32 f InDim0Lane1 [31:0] $end
$var wire 32 g InDim0Lane0 [31:0] $end
$var parameter 4 h Dim0Index $end
$var parameter 32 i PECount $end
$scope begin genblk1 $end
$upscope $end
$scope module pe $end
$var wire 32 j InDim0Lane0 [31:0] $end
$var wire 32 k InDim0Lane1 [31:0] $end
$var wire 1 l InternalRegisterEnable $end
$var wire 32 m InternalRegisterInputValue0 [31:0] $end
$var wire 1 * clk $end
$var wire 1 + rst $end
$var parameter 32 n PECount $end
$var reg 32 o InternalRegister0 [31:0] $end
$var reg 32 p OutDim0Lane0 [31:0] $end
$var reg 32 q OutDim0Lane1 [31:0] $end
$var reg 32 r PEValue [31:0] $end
$upscope $end
$upscope $end
$scope begin Dim0IndexForLoopBlock[5] $end
$var wire 32 s InDim0Lane1 [31:0] $end
$var wire 32 t InDim0Lane0 [31:0] $end
$var parameter 4 u Dim0Index $end
$var parameter 32 v PECount $end
$scope begin genblk1 $end
$upscope $end
$scope module pe $end
$var wire 32 w InDim0Lane0 [31:0] $end
$var wire 32 x InDim0Lane1 [31:0] $end
$var wire 1 y InternalRegisterEnable $end
$var wire 32 z InternalRegisterInputValue0 [31:0] $end
$var wire 1 * clk $end
$var wire 1 + rst $end
$var parameter 32 { PECount $end
$var reg 32 | InternalRegister0 [31:0] $end
$var reg 32 } OutDim0Lane0 [31:0] $end
$var reg 32 ~ OutDim0Lane1 [31:0] $end
$var reg 32 !" PEValue [31:0] $end
$upscope $end
$upscope $end
$scope begin Dim0IndexForLoopBlock[6] $end
$var wire 32 "" InDim0Lane1 [31:0] $end
$var wire 32 #" InDim0Lane0 [31:0] $end
$var parameter 4 $" Dim0Index $end
$var parameter 32 %" PECount $end
$scope begin genblk1 $end
$upscope $end
$scope module pe $end
$var wire 32 &" InDim0Lane0 [31:0] $end
$var wire 32 '" InDim0Lane1 [31:0] $end
$var wire 1 (" InternalRegisterEnable $end
$var wire 32 )" InternalRegisterInputValue0 [31:0] $end
$var wire 1 * clk $end
$var wire 1 + rst $end
$var parameter 32 *" PECount $end
$var reg 32 +" InternalRegister0 [31:0] $end
$var reg 32 ," OutDim0Lane0 [31:0] $end
$var reg 32 -" OutDim0Lane1 [31:0] $end
$var reg 32 ." PEValue [31:0] $end
$upscope $end
$upscope $end
$scope begin Dim0IndexForLoopBlock[7] $end
$var wire 32 /" InDim0Lane1 [31:0] $end
$var wire 32 0" InDim0Lane0 [31:0] $end
$var parameter 4 1" Dim0Index $end
$var parameter 32 2" PECount $end
$scope begin genblk1 $end
$upscope $end
$scope module pe $end
$var wire 32 3" InDim0Lane0 [31:0] $end
$var wire 32 4" InDim0Lane1 [31:0] $end
$var wire 1 5" InternalRegisterEnable $end
$var wire 32 6" InternalRegisterInputValue0 [31:0] $end
$var wire 1 * clk $end
$var wire 1 + rst $end
$var parameter 32 7" PECount $end
$var reg 32 8" InternalRegister0 [31:0] $end
$var reg 32 9" OutDim0Lane0 [31:0] $end
$var reg 32 :" OutDim0Lane1 [31:0] $end
$var reg 32 ;" PEValue [31:0] $end
$upscope $end
$upscope $end
$scope begin Dim0IndexForLoopBlock[8] $end
$var wire 32 <" InDim0Lane1 [31:0] $end
$var wire 32 =" InDim0Lane0 [31:0] $end
$var parameter 5 >" Dim0Index $end
$var parameter 32 ?" PECount $end
$scope begin genblk1 $end
$upscope $end
$scope module pe $end
$var wire 32 @" InDim0Lane0 [31:0] $end
$var wire 32 A" InDim0Lane1 [31:0] $end
$var wire 1 B" InternalRegisterEnable $end
$var wire 32 C" InternalRegisterInputValue0 [31:0] $end
$var wire 1 * clk $end
$var wire 1 + rst $end
$var parameter 32 D" PECount $end
$var reg 32 E" InternalRegister0 [31:0] $end
$var reg 32 F" OutDim0Lane0 [31:0] $end
$var reg 32 G" OutDim0Lane1 [31:0] $end
$var reg 32 H" PEValue [31:0] $end
$upscope $end
$upscope $end
$scope begin Dim0IndexForLoopBlock[9] $end
$var wire 32 I" InDim0Lane1 [31:0] $end
$var wire 32 J" InDim0Lane0 [31:0] $end
$var parameter 5 K" Dim0Index $end
$var parameter 32 L" PECount $end
$scope begin genblk1 $end
$upscope $end
$scope module pe $end
$var wire 32 M" InDim0Lane0 [31:0] $end
$var wire 32 N" InDim0Lane1 [31:0] $end
$var wire 1 O" InternalRegisterEnable $end
$var wire 32 P" InternalRegisterInputValue0 [31:0] $end
$var wire 1 * clk $end
$var wire 1 + rst $end
$var parameter 32 Q" PECount $end
$var reg 32 R" InternalRegister0 [31:0] $end
$var reg 32 S" OutDim0Lane0 [31:0] $end
$var reg 32 T" OutDim0Lane1 [31:0] $end
$var reg 32 U" PEValue [31:0] $end
$upscope $end
$upscope $end
$scope begin Dim0IndexForLoopBlock[10] $end
$var wire 32 V" InDim0Lane1 [31:0] $end
$var wire 32 W" InDim0Lane0 [31:0] $end
$var parameter 5 X" Dim0Index $end
$var parameter 32 Y" PECount $end
$scope begin genblk1 $end
$upscope $end
$scope module pe $end
$var wire 32 Z" InDim0Lane0 [31:0] $end
$var wire 32 [" InDim0Lane1 [31:0] $end
$var wire 1 \" InternalRegisterEnable $end
$var wire 32 ]" InternalRegisterInputValue0 [31:0] $end
$var wire 1 * clk $end
$var wire 1 + rst $end
$var parameter 32 ^" PECount $end
$var reg 32 _" InternalRegister0 [31:0] $end
$var reg 32 `" OutDim0Lane0 [31:0] $end
$var reg 32 a" OutDim0Lane1 [31:0] $end
$var reg 32 b" PEValue [31:0] $end
$upscope $end
$upscope $end
$scope begin Dim0IndexForLoopBlock[11] $end
$var wire 32 c" InDim0Lane1 [31:0] $end
$var wire 32 d" InDim0Lane0 [31:0] $end
$var parameter 5 e" Dim0Index $end
$var parameter 32 f" PECount $end
$scope begin genblk1 $end
$upscope $end
$scope module pe $end
$var wire 32 g" InDim0Lane0 [31:0] $end
$var wire 32 h" InDim0Lane1 [31:0] $end
$var wire 1 i" InternalRegisterEnable $end
$var wire 32 j" InternalRegisterInputValue0 [31:0] $end
$var wire 1 * clk $end
$var wire 1 + rst $end
$var parameter 32 k" PECount $end
$var reg 32 l" InternalRegister0 [31:0] $end
$var reg 32 m" OutDim0Lane0 [31:0] $end
$var reg 32 n" OutDim0Lane1 [31:0] $end
$var reg 32 o" PEValue [31:0] $end
$upscope $end
$upscope $end
$scope begin Dim0IndexForLoopBlock[12] $end
$var wire 32 p" InDim0Lane1 [31:0] $end
$var wire 32 q" InDim0Lane0 [31:0] $end
$var parameter 5 r" Dim0Index $end
$var parameter 32 s" PECount $end
$scope begin genblk1 $end
$upscope $end
$scope module pe $end
$var wire 32 t" InDim0Lane0 [31:0] $end
$var wire 32 u" InDim0Lane1 [31:0] $end
$var wire 1 v" InternalRegisterEnable $end
$var wire 32 w" InternalRegisterInputValue0 [31:0] $end
$var wire 1 * clk $end
$var wire 1 + rst $end
$var parameter 32 x" PECount $end
$var reg 32 y" InternalRegister0 [31:0] $end
$var reg 32 z" OutDim0Lane0 [31:0] $end
$var reg 32 {" OutDim0Lane1 [31:0] $end
$var reg 32 |" PEValue [31:0] $end
$upscope $end
$upscope $end
$scope begin Dim0IndexForLoopBlock[13] $end
$var wire 32 }" InDim0Lane1 [31:0] $end
$var wire 32 ~" InDim0Lane0 [31:0] $end
$var parameter 5 !# Dim0Index $end
$var parameter 32 "# PECount $end
$scope begin genblk1 $end
$upscope $end
$scope module pe $end
$var wire 32 ## InDim0Lane0 [31:0] $end
$var wire 32 $# InDim0Lane1 [31:0] $end
$var wire 1 %# InternalRegisterEnable $end
$var wire 32 &# InternalRegisterInputValue0 [31:0] $end
$var wire 1 * clk $end
$var wire 1 + rst $end
$var parameter 32 '# PECount $end
$var reg 32 (# InternalRegister0 [31:0] $end
$var reg 32 )# OutDim0Lane0 [31:0] $end
$var reg 32 *# OutDim0Lane1 [31:0] $end
$var reg 32 +# PEValue [31:0] $end
$upscope $end
$upscope $end
$scope begin Dim0IndexForLoopBlock[14] $end
$var wire 32 ,# InDim0Lane1 [31:0] $end
$var wire 32 -# InDim0Lane0 [31:0] $end
$var parameter 5 .# Dim0Index $end
$var parameter 32 /# PECount $end
$scope begin genblk1 $end
$upscope $end
$scope module pe $end
$var wire 32 0# InDim0Lane0 [31:0] $end
$var wire 32 1# InDim0Lane1 [31:0] $end
$var wire 1 2# InternalRegisterEnable $end
$var wire 32 3# InternalRegisterInputValue0 [31:0] $end
$var wire 1 * clk $end
$var wire 1 + rst $end
$var parameter 32 4# PECount $end
$var reg 32 5# InternalRegister0 [31:0] $end
$var reg 32 6# OutDim0Lane0 [31:0] $end
$var reg 32 7# OutDim0Lane1 [31:0] $end
$var reg 32 8# PEValue [31:0] $end
$upscope $end
$upscope $end
$scope begin Dim0IndexForLoopBlock[15] $end
$var wire 32 9# InDim0Lane1 [31:0] $end
$var wire 32 :# InDim0Lane0 [31:0] $end
$var parameter 5 ;# Dim0Index $end
$var parameter 32 <# PECount $end
$scope begin genblk1 $end
$upscope $end
$scope module pe $end
$var wire 32 =# InDim0Lane0 [31:0] $end
$var wire 32 ># InDim0Lane1 [31:0] $end
$var wire 1 ?# InternalRegisterEnable $end
$var wire 32 @# InternalRegisterInputValue0 [31:0] $end
$var wire 1 * clk $end
$var wire 1 + rst $end
$var parameter 32 A# PECount $end
$var reg 32 B# InternalRegister0 [31:0] $end
$var reg 32 C# OutDim0Lane0 [31:0] $end
$var reg 32 D# OutDim0Lane1 [31:0] $end
$var reg 32 E# PEValue [31:0] $end
$upscope $end
$upscope $end
$upscope $end
$upscope $end
$enddefinitions $end
$comment Show the parameter values. $end
$dumpall
b1111 A#
b1111 <#
b1111 ;#
b1110 4#
b1110 /#
b1110 .#
b1101 '#
b1101 "#
b1101 !#
b1100 x"
b1100 s"
b1100 r"
b1011 k"
b1011 f"
b1011 e"
b1010 ^"
b1010 Y"
b1010 X"
b1001 Q"
b1001 L"
b1001 K"
b1000 D"
b1000 ?"
b1000 >"
b111 7"
b111 2"
b111 1"
b110 *"
b110 %"
b110 $"
b101 {
b101 v
b101 u
b100 n
b100 i
b100 h
b11 a
b11 \
b11 [
b10 T
b10 O
b10 N
b1 G
b1 B
b1 A
b0 :
b0 5
b0 4
b0 $
$end
#0
$dumpvars
bx E#
bx D#
bx C#
bx B#
bx @#
x?#
bx >#
bx =#
bx :#
bx 9#
bx 8#
bx 7#
bx 6#
bx 5#
bx 3#
x2#
bx 1#
bx 0#
bx -#
bx ,#
bx +#
bx *#
bx )#
bx (#
bx &#
x%#
bx $#
bx ##
bx ~"
bx }"
bx |"
bx {"
bx z"
bx y"
bx w"
xv"
bx u"
bx t"
bx q"
bx p"
bx o"
bx n"
bx m"
bx l"
bx j"
xi"
bx h"
bx g"
bx d"
bx c"
bx b"
bx a"
bx `"
bx _"
bx ]"
x\"
bx ["
bx Z"
bx W"
bx V"
bx U"
bx T"
bx S"
bx R"
bx P"
xO"
bx N"
bx M"
bx J"
bx I"
bx H"
bx G"
bx F"
bx E"
bx C"
xB"
bx A"
bx @"
bx ="
bx <"
bx ;"
bx :"
bx 9"
bx 8"
bx 6"
x5"
bx 4"
bx 3"
bx 0"
bx /"
bx ."
bx -"
bx ,"
bx +"
bx )"
x("
bx '"
bx &"
bx #"
bx ""
bx !"
bx ~
bx }
bx |
bx z
xy
bx x
bx w
bx t
bx s
bx r
bx q
bx p
bx o
bx m
xl
bx k
bx j
bx g
bx f
bx e
bx d
bx c
bx b
bx `
x_
bx ^
bx ]
bx Z
bx Y
bx X
bx W
bx V
bx U
bx S
xR
bx Q
bx P
bx M
bx L
bx K
bx J
bx I
bx H
bx F
xE
bx D
bx C
bx @
bx ?
bx >
bx =
bx <
bx ;
bx 9
x8
bx 7
bx 6
bx 3
bx 2
bx 1
bx 0
bx /
bx .
bx -
bx ,
0+
0*
bx )
bx (
bx '
bx &
bx %
z#
z"
bz !
$end
#1
1*
#2
0*
1+
#3
b0 E#
b0 D#
b0 C#
b0 8#
b0 9#
b0 >#
b0 7#
b0 :#
b0 =#
b0 6#
b0 +#
b0 ,#
b0 1#
b0 *#
b0 -#
b0 0#
b0 )#
b0 |"
b0 }"
b0 $#
b0 {"
b0 ~"
b0 ##
b0 z"
b0 o"
b0 p"
b0 u"
b0 n"
b0 q"
b0 t"
b0 m"
b0 b"
b0 c"
b0 h"
b0 a"
b0 d"
b0 g"
b0 `"
b0 U"
b0 V"
b0 ["
b0 T"
b0 W"
b0 Z"
b0 S"
b0 H"
b0 I"
b0 N"
b0 G"
b0 J"
b0 M"
b0 F"
b0 ;"
b0 <"
b0 A"
b0 :"
b0 ="
b0 @"
b0 9"
b0 ."
b0 /"
b0 4"
b0 -"
b0 0"
b0 3"
b0 ,"
b0 !"
b0 ""
b0 '"
b0 ~
b0 #"
b0 &"
b0 }
b0 r
b0 s
b0 x
b0 q
b0 t
b0 w
b0 p
b0 e
b0 f
b0 k
b0 d
b0 g
b0 j
b0 c
b0 X
b0 Y
b0 ^
b0 W
b0 Z
b0 ]
b0 V
b0 K
b0 L
b0 Q
b0 J
b0 M
b0 P
b0 I
b0 >
b0 ?
b0 D
b0 =
b0 @
b0 C
b0 <
1*
#4
0*
#5
1*
#6
0*
b0 )
b0 /
b0 9
b0 F
b0 S
b0 `
b0 m
b0 z
b0 )"
b0 6"
b0 C"
b0 P"
b0 ]"
b0 j"
b0 w"
b0 &#
b0 3#
b0 @#
18
0E
0R
0_
0l
0y
0("
05"
0B"
0O"
0\"
0i"
0v"
0%#
02#
0?#
b1 (
b1 .
1+
#7
b0 ;
1*
#8
0*
b1 )
b1 /
b1 9
b1 F
b1 S
b1 `
b1 m
b1 z
b1 )"
b1 6"
b1 C"
b1 P"
b1 ]"
b1 j"
b1 w"
b1 &#
b1 3#
b1 @#
08
1E
b10 (
b10 .
#9
b1 H
1*
#10
0*
b10 )
b10 /
b10 9
b10 F
b10 S
b10 `
b10 m
b10 z
b10 )"
b10 6"
b10 C"
b10 P"
b10 ]"
b10 j"
b10 w"
b10 &#
b10 3#
b10 @#
0E
1R
b11 (
b11 .
#11
b10 U
1*
#12
0*
b11 )
b11 /
b11 9
b11 F
b11 S
b11 `
b11 m
b11 z
b11 )"
b11 6"
b11 C"
b11 P"
b11 ]"
b11 j"
b11 w"
b11 &#
b11 3#
b11 @#
0R
1_
b100 (
b100 .
#13
b11 b
1*
#14
0*
b100 )
b100 /
b100 9
b100 F
b100 S
b100 `
b100 m
b100 z
b100 )"
b100 6"
b100 C"
b100 P"
b100 ]"
b100 j"
b100 w"
b100 &#
b100 3#
b100 @#
0_
1l
b101 (
b101 .
#15
b100 o
1*
#16
0*
b101 )
b101 /
b101 9
b101 F
b101 S
b101 `
b101 m
b101 z
b101 )"
b101 6"
b101 C"
b101 P"
b101 ]"
b101 j"
b101 w"
b101 &#
b101 3#
b101 @#
0l
1y
b110 (
b110 .
#17
b101 |
1*
#18
0*
b110 )
b110 /
b110 9
b110 F
b110 S
b110 `
b110 m
b110 z
b110 )"
b110 6"
b110 C"
b110 P"
b110 ]"
b110 j"
b110 w"
b110 &#
b110 3#
b110 @#
0y
1("
b111 (
b111 .
#19
b110 +"
1*
#20
0*
b111 )
b111 /
b111 9
b111 F
b111 S
b111 `
b111 m
b111 z
b111 )"
b111 6"
b111 C"
b111 P"
b111 ]"
b111 j"
b111 w"
b111 &#
b111 3#
b111 @#
0("
15"
b1000 (
b1000 .
#21
b111 8"
1*
#22
0*
b1000 )
b1000 /
b1000 9
b1000 F
b1000 S
b1000 `
b1000 m
b1000 z
b1000 )"
b1000 6"
b1000 C"
b1000 P"
b1000 ]"
b1000 j"
b1000 w"
b1000 &#
b1000 3#
b1000 @#
05"
1B"
b1001 (
b1001 .
#23
b1000 E"
1*
#24
0*
b1001 )
b1001 /
b1001 9
b1001 F
b1001 S
b1001 `
b1001 m
b1001 z
b1001 )"
b1001 6"
b1001 C"
b1001 P"
b1001 ]"
b1001 j"
b1001 w"
b1001 &#
b1001 3#
b1001 @#
0B"
1O"
b1010 (
b1010 .
#25
b1001 R"
1*
#26
0*
b1010 )
b1010 /
b1010 9
b1010 F
b1010 S
b1010 `
b1010 m
b1010 z
b1010 )"
b1010 6"
b1010 C"
b1010 P"
b1010 ]"
b1010 j"
b1010 w"
b1010 &#
b1010 3#
b1010 @#
0O"
1\"
b1011 (
b1011 .
#27
b1010 _"
1*
#28
0*
b1011 )
b1011 /
b1011 9
b1011 F
b1011 S
b1011 `
b1011 m
b1011 z
b1011 )"
b1011 6"
b1011 C"
b1011 P"
b1011 ]"
b1011 j"
b1011 w"
b1011 &#
b1011 3#
b1011 @#
0\"
1i"
b1100 (
b1100 .
#29
b1011 l"
1*
#30
0*
b1100 )
b1100 /
b1100 9
b1100 F
b1100 S
b1100 `
b1100 m
b1100 z
b1100 )"
b1100 6"
b1100 C"
b1100 P"
b1100 ]"
b1100 j"
b1100 w"
b1100 &#
b1100 3#
b1100 @#
0i"
1v"
b1101 (
b1101 .
#31
b1100 y"
1*
#32
0*
b1101 )
b1101 /
b1101 9
b1101 F
b1101 S
b1101 `
b1101 m
b1101 z
b1101 )"
b1101 6"
b1101 C"
b1101 P"
b1101 ]"
b1101 j"
b1101 w"
b1101 &#
b1101 3#
b1101 @#
0v"
1%#
b1110 (
b1110 .
#33
b1101 (#
1*
#34
0*
b1110 )
b1110 /
b1110 9
b1110 F
b1110 S
b1110 `
b1110 m
b1110 z
b1110 )"
b1110 6"
b1110 C"
b1110 P"
b1110 ]"
b1110 j"
b1110 w"
b1110 &#
b1110 3#
b1110 @#
0%#
12#
b1111 (
b1111 .
#35
b1110 5#
1*
#36
0*
b1111 )
b1111 /
b1111 9
b1111 F
b1111 S
b1111 `
b1111 m
b1111 z
b1111 )"
b1111 6"
b1111 C"
b1111 P"
b1111 ]"
b1111 j"
b1111 w"
b1111 &#
b1111 3#
b1111 @#
02#
1?#
b10000 (
b10000 .
#37
b1111 B#
1*
#38
0*
b1 2
b1 7
b1 1
b1 '
b1 -
b0 3
b0 6
b0 0
b0 &
b0 ,
0+
#39
b1 ?
b1 D
b1 =
b1 >
1*
#40
0*
b10 2
b10 7
b10 1
b10 '
b10 -
b1 3
b1 6
b1 0
b1 &
b1 ,
#41
b10 ?
b10 D
b10 =
b1 @
b1 C
b1 <
b11 >
b1 L
b1 Q
b1 J
b1 K
1*
#42
0*
b11 2
b11 7
b11 1
b11 '
b11 -
b10 3
b10 6
b10 0
b10 &
b10 ,
#43
b1 Y
b1 ^
b1 W
b1 X
b10 L
b10 Q
b10 J
b1 M
b1 P
b1 I
b1100101110100 K
b11 ?
b11 D
b11 =
b10 @
b10 C
b10 <
b110 >
1*
#44
0*
b100 2
b100 7
b100 1
b100 '
b100 -
b11 3
b11 6
b11 0
b11 &
b11 ,
#45
b100 ?
b100 D
b100 =
b11 @
b11 C
b11 <
b1010 >
b11 L
b11 Q
b11 J
b10 M
b10 P
b10 I
b1001000000010 K
b10 Y
b10 ^
b10 W
b1 Z
b1 ]
b1 V
b111100001011 X
b1 f
b1 k
b1 d
b1 e
1*
#46
0*
b101 2
b101 7
b101 1
b101 '
b101 -
b100 3
b100 6
b100 0
b100 &
b100 ,
#47
b1 s
b1 x
b1 q
b1 r
b10 f
b10 k
b10 d
b1 g
b1 j
b1 c
b1011101100000 e
b11 Y
b11 ^
b11 W
b10 Z
b10 ]
b10 V
b1100010101111 X
b100 L
b100 Q
b100 J
b11 M
b11 P
b11 I
b10010111110 K
b101 ?
b101 D
b101 =
b100 @
b100 C
b100 <
b1111 >
1*
#48
0*
b110 2
b110 7
b110 1
b110 '
b110 -
b101 3
b101 6
b101 0
b101 &
b101 ,
#49
b110 ?
b110 D
b110 =
b101 @
b101 C
b101 <
b10101 >
b101 L
b101 Q
b101 J
b100 M
b100 P
b100 I
b101011001111 K
b100 Y
b100 ^
b100 W
b11 Z
b11 ]
b11 V
b10110111011 X
b11 f
b11 k
b11 d
b10 g
b10 j
b10 c
b100100101001 e
b10 s
b10 x
b10 q
b1 t
b1 w
b1 p
b1101001101111 r
b1 ""
b1 '"
b1 ~
b1 !"
1*
#50
0*
b111 2
b111 7
b111 1
b111 '
b111 -
b110 3
b110 6
b110 0
b110 &
b110 ,
#51
b1 /"
b1 4"
b1 -"
b1 ."
b10 ""
b10 '"
b10 ~
b1 #"
b1 &"
b1 }
b110110000001 !"
b11 s
b11 x
b11 q
b10 t
b10 w
b10 p
b1101001101100 r
b100 f
b100 k
b100 d
b11 g
b11 j
b11 c
b1001001000101 e
b101 Y
b101 ^
b101 W
b100 Z
b100 ]
b100 V
b10110110110 X
b110 L
b110 Q
b110 J
b101 M
b101 P
b101 I
b1010101001110 K
b111 ?
b111 D
b111 =
b110 @
b110 C
b110 <
b11100 >
1*
#52
0*
b1000 2
b1000 7
b1000 1
b1000 '
b1000 -
b111 3
b111 6
b111 0
b111 &
b111 ,
#53
b1000 ?
b1000 D
b1000 =
b111 @
b111 C
b111 <
b100100 >
b111 L
b111 Q
b111 J
b110 M
b110 P
b110 I
b1001000100100 K
b110 Y
b110 ^
b110 W
b101 Z
b101 ]
b101 V
b1010010011010 X
b101 f
b101 k
b101 d
b100 g
b100 j
b100 c
b110000110100 e
b100 s
b100 x
b100 q
b11 t
b11 w
b11 p
b1110010001 r
b11 ""
b11 '"
b11 ~
b10 #"
b10 &"
b10 }
b1010011110011 !"
b10 /"
b10 4"
b10 -"
b1 0"
b1 3"
b1 ,"
b1010010001000 ."
b1 <"
b1 A"
b1 :"
b1 ;"
1*
#54
0*
b1001 2
b1001 7
b1001 1
b1001 '
b1001 -
b1000 3
b1000 6
b1000 0
b1000 &
b1000 ,
#55
b1 I"
b1 N"
b1 G"
b1 H"
b10 <"
b10 A"
b10 :"
b1 ="
b1 @"
b1 9"
b10000011111 ;"
b11 /"
b11 4"
b11 -"
b10 0"
b10 3"
b10 ,"
b101011100100 ."
b100 ""
b100 '"
b100 ~
b11 #"
b11 &"
b11 }
b110010110111 !"
b101 s
b101 x
b101 q
b100 t
b100 w
b100 p
b1110010110 r
b110 f
b110 k
b110 d
b101 g
b101 j
b101 c
b1110111011011 e
b111 Y
b111 ^
b111 W
b110 Z
b110 ]
b110 V
b1001000011100 X
b1000 L
b1000 Q
b1000 J
b111 M
b111 P
b111 I
b10010011011 K
b1001 ?
b1001 D
b1001 =
b1000 @
b1000 C
b1000 <
b101101 >
1*
#56
0*
b1010 2
b1010 7
b1010 1
b1010 '
b1010 -
b1001 3
b1001 6
b1001 0
b1001 &
b1001 ,
#57
b1010 ?
b1010 D
b1010 =
b1001 @
b1001 C
b1001 <
b110111 >
b1001 L
b1001 Q
b1001 J
b1000 M
b1000 P
b1000 I
b10010010010 K
b1000 Y
b1000 ^
b1000 W
b111 Z
b111 ]
b111 V
b1101000000011 X
b111 f
b111 k
b111 d
b110 g
b110 j
b110 c
b1011001111100 e
b110 s
b110 x
b110 q
b101 t
b101 w
b101 p
b1011011011110 r
b101 ""
b101 '"
b101 ~
b100 #"
b100 &"
b100 }
b1001011001000 !"
b100 /"
b100 4"
b100 -"
b11 0"
b11 3"
b11 ,"
b101011110111 ."
b11 <"
b11 A"
b11 :"
b10 ="
b10 @"
b10 9"
b1001001010110 ;"
b10 I"
b10 N"
b10 G"
b1 J"
b1 M"
b1 F"
b1111000000000 H"
b1 V"
b1 ["
b1 T"
b1 U"
1*
#58
0*
b1011 2
b1011 7
b1011 1
b1011 '
b1011 -
b1010 3
b1010 6
b1010 0
b1010 &
b1010 ,
#59
b1 c"
b1 h"
b1 a"
b1 b"
b10 V"
b10 ["
b10 T"
b1 W"
b1 Z"
b1 S"
b10010001111 U"
b11 I"
b11 N"
b11 G"
b10 J"
b10 M"
b10 F"
b10 H"
b100 <"
b100 A"
b100 :"
b11 ="
b11 @"
b11 9"
b111101010101 ;"
b101 /"
b101 4"
b101 -"
b100 0"
b100 3"
b100 ,"
b101011110010 ."
b110 ""
b110 '"
b110 ~
b101 #"
b101 &"
b101 }
b1001110001 !"
b111 s
b111 x
b111 q
b110 t
b110 w
b110 p
b1011011010111 r
b1000 f
b1000 k
b1000 d
b111 g
b111 j
b111 c
b1000001111010 e
b1001 Y
b1001 ^
b1001 W
b1000 Z
b1000 ]
b1000 V
b1101000001100 X
b1010 L
b1010 Q
b1010 J
b1001 M
b1001 P
b1001 I
b1101101011000 K
b1011 ?
b1011 D
b1011 =
b1010 @
b1010 C
b1010 <
b1000010 >
1*
#60
0*
b1100 2
b1100 7
b1100 1
b1100 '
b1100 -
b1011 3
b1011 6
b1011 0
b1011 &
b1011 ,
