Designs/Simulation-Waveforms/NTT3.vcd
$date
	Mon May 26 23:42:52 2025
$end
$version
	Icarus Verilog
$end
$timescale
	1s
$end
$scope module Dff $end
$var wire 32 ! Input [31:0] $end
$var wire 1 " clk $end
$var wire 1 # rst $end
$var parameter 32 $ DefualtValue $end
$var reg 32 % Output [31:0] $end
$upscope $end
$scope module TestBench $end
$var reg 32 & Dim0InputLane0 [31:0] $end
$var reg 32 ' InternalRegisterEnableIndex [31:0] $end
$var reg 32 ( InternalRegisterInputValue0 [31:0] $end
$var reg 32 ) InternalRegisterInputValue1 [31:0] $end
$var reg 1 * clk $end
$var reg 1 + rst $end
$scope module dut $end
$var wire 32 , Dim0InputLane0 [31:0] $end
$var wire 32 - InternalRegisterEnableIndex [31:0] $end
$var wire 32 . InternalRegisterInputValue0 [31:0] $end
$var wire 32 / InternalRegisterInputValue1 [31:0] $end
$var wire 32 0 PassThroughWires0Lane0 [31:0] $end
$var wire 1 * clk $end
$var wire 1 + rst $end
$var reg 32 1 i [31:0] $end
$var integer 32 2 ii [31:0] $end
$var integer 32 3 j [31:0] $end
$scope begin Dim0IndexForLoopBlock[0] $end
$var wire 32 4 InDim0Lane0 [31:0] $end
$var parameter 2 5 Dim0Index $end
$var parameter 32 6 PECount $end
$scope module pe $end
$var wire 32 7 InDim0Lane0 [31:0] $end
$var wire 1 8 InternalRegisterEnable $end
$var wire 32 9 InternalRegisterInputValue0 [31:0] $end
$var wire 32 : InternalRegisterInputValue1 [31:0] $end
$var wire 1 * clk $end
$var wire 1 + rst $end
$var parameter 32 ; PECount $end
$var reg 32 < InternalRegister0 [31:0] $end
$var reg 32 = InternalRegister1 [31:0] $end
$var reg 32 > OutDim0Lane0 [31:0] $end
$var reg 32 ? PEValue [31:0] $end
$upscope $end
$upscope $end
$scope begin Dim0IndexForLoopBlock[1] $end
$var wire 32 @ InDim0Lane0 [31:0] $end
$var parameter 2 A Dim0Index $end
$var parameter 32 B PECount $end
$scope module pe $end
$var wire 32 C InDim0Lane0 [31:0] $end
$var wire 1 D InternalRegisterEnable $end
$var wire 32 E InternalRegisterInputValue0 [31:0] $end
$var wire 32 F InternalRegisterInputValue1 [31:0] $end
$var wire 1 * clk $end
$var wire 1 + rst $end
$var parameter 32 G PECount $end
$var reg 32 H InternalRegister0 [31:0] $end
$var reg 32 I InternalRegister1 [31:0] $end
$var reg 32 J OutDim0Lane0 [31:0] $end
$var reg 32 K PEValue [31:0] $end
$upscope $end
$upscope $end
$scope begin Dim0IndexForLoopBlock[2] $end
$var wire 32 L InDim0Lane0 [31:0] $end
$var parameter 3 M Dim0Index $end
$var parameter 32 N PECount $end
$scope module pe $end
$var wire 32 O InDim0Lane0 [31:0] $end
$var wire 1 P InternalRegisterEnable $end
$var wire 32 Q InternalRegisterInputValue0 [31:0] $end
$var wire 32 R InternalRegisterInputValue1 [31:0] $end
$var wire 1 * clk $end
$var wire 1 + rst $end
$var parameter 32 S PECount $end
$var reg 32 T InternalRegister0 [31:0] $end
$var reg 32 U InternalRegister1 [31:0] $end
$var reg 32 V OutDim0Lane0 [31:0] $end
$var reg 32 W PEValue [31:0] $end
$upscope $end
$upscope $end
$scope begin Dim0IndexForLoopBlock[3] $end
$var wire 32 X InDim0Lane0 [31:0] $end
$var parameter 3 Y Dim0Index $end
$var parameter 32 Z PECount $end
$scope module pe $end
$var wire 32 [ InDim0Lane0 [31:0] $end
$var wire 1 \ InternalRegisterEnable $end
$var wire 32 ] InternalRegisterInputValue0 [31:0] $end
$var wire 32 ^ InternalRegisterInputValue1 [31:0] $end
$var wire 1 * clk $end
$var wire 1 + rst $end
$var parameter 32 _ PECount $end
$var reg 32 ` InternalRegister0 [31:0] $end
$var reg 32 a InternalRegister1 [31:0] $end
$var reg 32 b OutDim0Lane0 [31:0] $end
$var reg 32 c PEValue [31:0] $end
$upscope $end
$upscope $end
$scope begin Dim0IndexForLoopBlock[4] $end
$var wire 32 d InDim0Lane0 [31:0] $end
$var parameter 4 e Dim0Index $end
$var parameter 32 f PECount $end
$scope module pe $end
$var wire 32 g InDim0Lane0 [31:0] $end
$var wire 1 h InternalRegisterEnable $end
$var wire 32 i InternalRegisterInputValue0 [31:0] $end
$var wire 32 j InternalRegisterInputValue1 [31:0] $end
$var wire 1 * clk $end
$var wire 1 + rst $end
$var parameter 32 k PECount $end
$var reg 32 l InternalRegister0 [31:0] $end
$var reg 32 m InternalRegister1 [31:0] $end
$var reg 32 n OutDim0Lane0 [31:0] $end
$var reg 32 o PEValue [31:0] $end
$upscope $end
$upscope $end
$scope begin Dim0IndexForLoopBlock[5] $end
$var wire 32 p InDim0Lane0 [31:0] $end
$var parameter 4 q Dim0Index $end
$var parameter 32 r PECount $end
$scope module pe $end
$var wire 32 s InDim0Lane0 [31:0] $end
$var wire 1 t InternalRegisterEnable $end
$var wire 32 u InternalRegisterInputValue0 [31:0] $end
$var wire 32 v InternalRegisterInputValue1 [31:0] $end
$var wire 1 * clk $end
$var wire 1 + rst $end
$var parameter 32 w PECount $end
$var reg 32 x InternalRegister0 [31:0] $end
$var reg 32 y InternalRegister1 [31:0] $end
$var reg 32 z OutDim0Lane0 [31:0] $end
$var reg 32 { PEValue [31:0] $end
$upscope $end
$upscope $end
$scope begin Dim0IndexForLoopBlock[6] $end
$var wire 32 | InDim0Lane0 [31:0] $end
$var parameter 4 } Dim0Index $end
$var parameter 32 ~ PECount $end
$scope module pe $end
$var wire 32 !" InDim0Lane0 [31:0] $end
$var wire 1 "" InternalRegisterEnable $end
$var wire 32 #" InternalRegisterInputValue0 [31:0] $end
$var wire 32 $" InternalRegisterInputValue1 [31:0] $end
$var wire 1 * clk $end
$var wire 1 + rst $end
$var parameter 32 %" PECount $end
$var reg 32 &" InternalRegister0 [31:0] $end
$var reg 32 '" InternalRegister1 [31:0] $end
$var reg 32 (" OutDim0Lane0 [31:0] $end
$var reg 32 )" PEValue [31:0] $end
$upscope $end
$upscope $end
$scope begin Dim0IndexForLoopBlock[7] $end
$var wire 32 *" InDim0Lane0 [31:0] $end
$var parameter 4 +" Dim0Index $end
$var parameter 32 ," PECount $end
$scope module pe $end
$var wire 32 -" InDim0Lane0 [31:0] $end
$var wire 1 ." InternalRegisterEnable $end
$var wire 32 /" InternalRegisterInputValue0 [31:0] $end
$var wire 32 0" InternalRegisterInputValue1 [31:0] $end
$var wire 1 * clk $end
$var wire 1 + rst $end
$var parameter 32 1" PECount $end
$var reg 32 2" InternalRegister0 [31:0] $end
$var reg 32 3" InternalRegister1 [31:0] $end
$var reg 32 4" OutDim0Lane0 [31:0] $end
$var reg 32 5" PEValue [31:0] $end
$upscope $end
$upscope $end
$scope begin Dim0IndexForLoopBlock[8] $end
$var wire 32 6" InDim0Lane0 [31:0] $end
$var parameter 5 7" Dim0Index $end
$var parameter 32 8" PECount $end
$scope module pe $end
$var wire 32 9" InDim0Lane0 [31:0] $end
$var wire 1 :" InternalRegisterEnable $end
$var wire 32 ;" InternalRegisterInputValue0 [31:0] $end
$var wire 32 <" InternalRegisterInputValue1 [31:0] $end
$var wire 1 * clk $end
$var wire 1 + rst $end
$var parameter 32 =" PECount $end
$var reg 32 >" InternalRegister0 [31:0] $end
$var reg 32 ?" InternalRegister1 [31:0] $end
$var reg 32 @" OutDim0Lane0 [31:0] $end
$var reg 32 A" PEValue [31:0] $end
$upscope $end
$upscope $end
$scope begin Dim0IndexForLoopBlock[9] $end
$var wire 32 B" InDim0Lane0 [31:0] $end
$var parameter 5 C" Dim0Index $end
$var parameter 32 D" PECount $end
$scope module pe $end
$var wire 32 E" InDim0Lane0 [31:0] $end
$var wire 1 F" InternalRegisterEnable $end
$var wire 32 G" InternalRegisterInputValue0 [31:0] $end
$var wire 32 H" InternalRegisterInputValue1 [31:0] $end
$var wire 1 * clk $end
$var wire 1 + rst $end
$var parameter 32 I" PECount $end
$var reg 32 J" InternalRegister0 [31:0] $end
$var reg 32 K" InternalRegister1 [31:0] $end
$var reg 32 L" OutDim0Lane0 [31:0] $end
$var reg 32 M" PEValue [31:0] $end
$upscope $end
$upscope $end
$scope begin Dim0IndexForLoopBlock[10] $end
$var wire 32 N" InDim0Lane0 [31:0] $end
$var parameter 5 O" Dim0Index $end
$var parameter 32 P" PECount $end
$scope module pe $end
$var wire 32 Q" InDim0Lane0 [31:0] $end
$var wire 1 R" InternalRegisterEnable $end
$var wire 32 S" InternalRegisterInputValue0 [31:0] $end
$var wire 32 T" InternalRegisterInputValue1 [31:0] $end
$var wire 1 * clk $end
$var wire 1 + rst $end
$var parameter 32 U" PECount $end
$var reg 32 V" InternalRegister0 [31:0] $end
$var reg 32 W" InternalRegister1 [31:0] $end
$var reg 32 X" OutDim0Lane0 [31:0] $end
$var reg 32 Y" PEValue [31:0] $end
$upscope $end
$upscope $end
$scope begin Dim0IndexForLoopBlock[11] $end
$var wire 32 Z" InDim0Lane0 [31:0] $end
$var parameter 5 [" Dim0Index $end
$var parameter 32 \" PECount $end
$scope module pe $end
$var wire 32 ]" InDim0Lane0 [31:0] $end
$var wire 1 ^" InternalRegisterEnable $end
$var wire 32 _" InternalRegisterInputValue0 [31:0] $end
$var wire 32 `" InternalRegisterInputValue1 [31:0] $end
$var wire 1 * clk $end
$var wire 1 + rst $end
$var parameter 32 a" PECount $end
$var reg 32 b" InternalRegister0 [31:0] $end
$var reg 32 c" InternalRegister1 [31:0] $end
$var reg 32 d" OutDim0Lane0 [31:0] $end
$var reg 32 e" PEValue [31:0] $end
$upscope $end
$upscope $end
$scope begin Dim0IndexForLoopBlock[12] $end
$var wire 32 f" InDim0Lane0 [31:0] $end
$var parameter 5 g" Dim0Index $end
$var parameter 32 h" PECount $end
$scope module pe $end
$var wire 32 i" InDim0Lane0 [31:0] $end
$var wire 1 j" InternalRegisterEnable $end
$var wire 32 k" InternalRegisterInputValue0 [31:0] $end
$var wire 32 l" InternalRegisterInputValue1 [31:0] $end
$var wire 1 * clk $end
$var wire 1 + rst $end
$var parameter 32 m" PECount $end
$var reg 32 n" InternalRegister0 [31:0] $end
$var reg 32 o" InternalRegister1 [31:0] $end
$var reg 32 p" OutDim0Lane0 [31:0] $end
$var reg 32 q" PEValue [31:0] $end
$upscope $end
$upscope $end
$scope begin Dim0IndexForLoopBlock[13] $end
$var wire 32 r" InDim0Lane0 [31:0] $end
$var parameter 5 s" Dim0Index $end
$var parameter 32 t" PECount $end
$scope module pe $end
$var wire 32 u" InDim0Lane0 [31:0] $end
$var wire 1 v" InternalRegisterEnable $end
$var wire 32 w" InternalRegisterInputValue0 [31:0] $end
$var wire 32 x" InternalRegisterInputValue1 [31:0] $end
$var wire 1 * clk $end
$var wire 1 + rst $end
$var parameter 32 y" PECount $end
$var reg 32 z" InternalRegister0 [31:0] $end
$var reg 32 {" InternalRegister1 [31:0] $end
$var reg 32 |" OutDim0Lane0 [31:0] $end
$var reg 32 }" PEValue [31:0] $end
$upscope $end
$upscope $end
$scope begin Dim0IndexForLoopBlock[14] $end
$var wire 32 ~" InDim0Lane0 [31:0] $end
$var parameter 5 !# Dim0Index $end
$var parameter 32 "# PECount $end
$scope module pe $end
$var wire 32 ## InDim0Lane0 [31:0] $end
$var wire 1 $# InternalRegisterEnable $end
$var wire 32 %# InternalRegisterInputValue0 [31:0] $end
$var wire 32 &# InternalRegisterInputValue1 [31:0] $end
$var wire 1 * clk $end
$var wire 1 + rst $end
$var parameter 32 '# PECount $end
$var reg 32 (# InternalRegister0 [31:0] $end
$var reg 32 )# InternalRegister1 [31:0] $end
$var reg 32 *# OutDim0Lane0 [31:0] $end
$var reg 32 +# PEValue [31:0] $end
$upscope $end
$upscope $end
$scope begin Dim0IndexForLoopBlock[15] $end
$var wire 32 ,# InDim0Lane0 [31:0] $end
$var parameter 5 -# Dim0Index $end
$var parameter 32 .# PECount $end
$scope module pe $end
$var wire 32 /# InDim0Lane0 [31:0] $end
$var wire 1 0# InternalRegisterEnable $end
$var wire 32 1# InternalRegisterInputValue0 [31:0] $end
$var wire 32 2# InternalRegisterInputValue1 [31:0] $end
$var wire 1 * clk $end
$var wire 1 + rst $end
$var parameter 32 3# PECount $end
$var reg 32 4# InternalRegister0 [31:0] $end
$var reg 32 5# InternalRegister1 [31:0] $end
$var reg 32 6# OutDim0Lane0 [31:0] $end
$var reg 32 7# PEValue [31:0] $end
$upscope $end
$upscope $end
$upscope $end
$upscope $end
$enddefinitions $end
$comment Show the parameter values. $end
$dumpall
b1111 3#
b1111 .#
b1111 -#
b1110 '#
b1110 "#
b1110 !#
b1101 y"
b1101 t"
b1101 s"
b1100 m"
b1100 h"
b1100 g"
b1011 a"
b1011 \"
b1011 ["
b1010 U"
b1010 P"
b1010 O"
b1001 I"
b1001 D"
b1001 C"
b1000 ="
b1000 8"
b1000 7"
b111 1"
b111 ,"
b111 +"
b110 %"
b110 ~
b110 }
b101 w
b101 r
b101 q
b100 k
b100 f
b100 e
b11 _
b11 Z
b11 Y
b10 S
b10 N
b10 M
b1 G
b1 B
b1 A
b0 ;
b0 6
b0 5
b0 $
$end
#0
$dumpvars
bx 7#
bx 6#
bx 5#
bx 4#
bx 2#
bx 1#
x0#
bx /#
bx ,#
bx +#
bx *#
bx )#
bx (#
bx &#
bx %#
x$#
bx ##
bx ~"
bx }"
bx |"
bx {"
bx z"
bx x"
bx w"
xv"
bx u"
bx r"
bx q"
bx p"
bx o"
bx n"
bx l"
bx k"
xj"
bx i"
bx f"
bx e"
bx d"
bx c"
bx b"
bx `"
bx _"
x^"
bx ]"
bx Z"
bx Y"
bx X"
bx W"
bx V"
bx T"
bx S"
xR"
bx Q"
bx N"
bx M"
bx L"
bx K"
bx J"
bx H"
bx G"
xF"
bx E"
bx B"
bx A"
bx @"
bx ?"
bx >"
bx <"
bx ;"
x:"
bx 9"
bx 6"
bx 5"
bx 4"
bx 3"
bx 2"
bx 0"
bx /"
x."
bx -"
bx *"
bx )"
bx ("
bx '"
bx &"
bx $"
bx #"
x""
bx !"
bx |
bx {
bx z
bx y
bx x
bx v
bx u
xt
bx s
bx p
bx o
bx n
bx m
bx l
bx j
bx i
xh
bx g
bx d
bx c
bx b
bx a
bx `
bx ^
bx ]
x\
bx [
bx X
bx W
bx V
bx U
bx T
bx R
bx Q
xP
bx O
bx L
bx K
bx J
bx I
bx H
bx F
bx E
xD
bx C
bx @
bx ?
bx >
bx =
bx <
bx :
bx 9
x8
bx 7
bx 4
bx 3
bx 2
b0 1
bx 0
bx /
bx .
bx -
bx ,
0+
0*
bx )
bx (
bx '
bx &
bx %
z#
z"
bz !
$end
#1
b1 1
1*
#2
0*
1+
#3
b0 7#
b0 6#
b0 +#
b0 *#
b0 }"
b0 |"
b0 q"
b0 p"
b0 e"
b0 d"
b0 Y"
b0 X"
b0 M"
b0 L"
b0 A"
b0 @"
b0 5"
b0 4"
b0 )"
b0 ("
b0 {
b0 z
b0 o
b0 n
b0 c
b0 b
b0 W
b0 V
b0 K
b0 J
b0 ?
b0 >
b0 1
b10000 2
1*
#4
0*
#5
b10000 2
1*
#6
0*
b1 )
b1 /
b1 :
b1 F
b1 R
b1 ^
b1 j
b1 v
b1 $"
b1 0"
b1 <"
b1 H"
b1 T"
b1 `"
b1 l"
b1 x"
b1 &#
b1 2#
b0 (
b0 .
b0 9
b0 E
b0 Q
b0 ]
b0 i
b0 u
b0 #"
b0 /"
b0 ;"
b0 G"
b0 S"
b0 _"
b0 k"
b0 w"
b0 %#
b0 1#
18
0D
0P
0\
0h
0t
0""
0."
0:"
0F"
0R"
0^"
0j"
0v"
0$#
00#
b1 '
b1 -
1+
#7
b1 =
b0 <
b10000 2
1*
#8
0*
b10 )
b10 /
b10 :
b10 F
b10 R
b10 ^
b10 j
b10 v
b10 $"
b10 0"
b10 <"
b10 H"
b10 T"
b10 `"
b10 l"
b10 x"
b10 &#
b10 2#
b1 (
b1 .
b1 9
b1 E
b1 Q
b1 ]
b1 i
b1 u
b1 #"
b1 /"
b1 ;"
b1 G"
b1 S"
b1 _"
b1 k"
b1 w"
b1 %#
b1 1#
08
1D
b10 '
b10 -
#9
b10 I
b1 H
b10000 2
1*
#10
0*
b11 )
b11 /
b11 :
b11 F
b11 R
b11 ^
b11 j
b11 v
b11 $"
b11 0"
b11 <"
b11 H"
b11 T"
b11 `"
b11 l"
b11 x"
b11 &#
b11 2#
b10 (
b10 .
b10 9
b10 E
b10 Q
b10 ]
b10 i
b10 u
b10 #"
b10 /"
b10 ;"
b10 G"
b10 S"
b10 _"
b10 k"
b10 w"
b10 %#
b10 1#
0D
1P
b11 '
b11 -
#11
b11 U
b10 T
b10000 2
1*
#12
0*
b100 )
b100 /
b100 :
b100 F
b100 R
b100 ^
b100 j
b100 v
b100 $"
b100 0"
b100 <"
b100 H"
b100 T"
b100 `"
b100 l"
b100 x"
b100 &#
b100 2#
b11 (
b11 .
b11 9
b11 E
b11 Q
b11 ]
b11 i
b11 u
b11 #"
b11 /"
b11 ;"
b11 G"
b11 S"
b11 _"
b11 k"
b11 w"
b11 %#
b11 1#
0P
1\
b100 '
b100 -
#13
b100 a
b11 `
b10000 2
1*
#14
0*
b101 )
b101 /
b101 :
b101 F
b101 R
b101 ^
b101 j
b101 v
b101 $"
b101 0"
b101 <"
b101 H"
b101 T"
b101 `"
b101 l"
b101 x"
b101 &#
b101 2#
b100 (
b100 .
b100 9
b100 E
b100 Q
b100 ]
b100 i
b100 u
b100 #"
b100 /"
b100 ;"
b100 G"
b100 S"
b100 _"
b100 k"
b100 w"
b100 %#
b100 1#
0\
1h
b101 '
b101 -
#15
b101 m
b100 l
b10000 2
1*
#16
0*
b110 )
b110 /
b110 :
b110 F
b110 R
b110 ^
b110 j
b110 v
b110 $"
b110 0"
b110 <"
b110 H"
b110 T"
b110 `"
b110 l"
b110 x"
b110 &#
b110 2#
b101 (
b101 .
b101 9
b101 E
b101 Q
b101 ]
b101 i
b101 u
b101 #"
b101 /"
b101 ;"
b101 G"
b101 S"
b101 _"
b101 k"
b101 w"
b101 %#
b101 1#
0h
1t
b110 '
b110 -
#17
b110 y
b101 x
b10000 2
1*
#18
0*
b111 )
b111 /
b111 :
b111 F
b111 R
b111 ^
b111 j
b111 v
b111 $"
b111 0"
b111 <"
b111 H"
b111 T"
b111 `"
b111 l"
b111 x"
b111 &#
b111 2#
b110 (
b110 .
b110 9
b110 E
b110 Q
b110 ]
b110 i
b110 u
b110 #"
b110 /"
b110 ;"
b110 G"
b110 S"
b110 _"
b110 k"
b110 w"
b110 %#
b110 1#
0t
1""
b111 '
b111 -
#19
b111 '"
b110 &"
b10000 2
1*
#20
0*
b1000 )
b1000 /
b1000 :
b1000 F
b1000 R
b1000 ^
b1000 j
b1000 v
b1000 $"
b1000 0"
b1000 <"
b1000 H"
b1000 T"
b1000 `"
b1000 l"
b1000 x"
b1000 &#
b1000 2#
b111 (
b111 .
b111 9
b111 E
b111 Q
b111 ]
b111 i
b111 u
b111 #"
b111 /"
b111 ;"
b111 G"
b111 S"
b111 _"
b111 k"
b111 w"
b111 %#
b111 1#
0""
1."
b1000 '
b1000 -
#21
b1000 3"
b111 2"
b10000 2
1*
#22
0*
b1001 )
b1001 /
b1001 :
b1001 F
b1001 R
b1001 ^
b1001 j
b1001 v
b1001 $"
b1001 0"
b1001 <"
b1001 H"
b1001 T"
b1001 `"
b1001 l"
b1001 x"
b1001 &#
b1001 2#
b1000 (
b1000 .
b1000 9
b1000 E
b1000 Q
b1000 ]
b1000 i
b1000 u
b1000 #"
b1000 /"
b1000 ;"
b1000 G"
b1000 S"
b1000 _"
b1000 k"
b1000 w"
b1000 %#
b1000 1#
0."
1:"
b1001 '
b1001 -
#23
b1001 ?"
b1000 >"
b10000 2
1*
#24
0*
b1010 )
b1010 /
b1010 :
b1010 F
b1010 R
b1010 ^
b1010 j
b1010 v
b1010 $"
b1010 0"
b1010 <"
b1010 H"
b1010 T"
b1010 `"
b1010 l"
b1010 x"
b1010 &#
b1010 2#
b1001 (
b1001 .
b1001 9
b1001 E
b1001 Q
b1001 ]
b1001 i
b1001 u
b1001 #"
b1001 /"
b1001 ;"
b1001 G"
b1001 S"
b1001 _"
b1001 k"
b1001 w"
b1001 %#
b1001 1#
0:"
1F"
b1010 '
b1010 -
#25
b1010 K"
b1001 J"
b10000 2
1*
#26
0*
b1011 )
b1011 /
b1011 :
b1011 F
b1011 R
b1011 ^
b1011 j
b1011 v
b1011 $"
b1011 0"
b1011 <"
b1011 H"
b1011 T"
b1011 `"
b1011 l"
b1011 x"
b1011 &#
b1011 2#
b1010 (
b1010 .
b1010 9
b1010 E
b1010 Q
b1010 ]
b1010 i
b1010 u
b1010 #"
b1010 /"
b1010 ;"
b1010 G"
b1010 S"
b1010 _"
b1010 k"
b1010 w"
b1010 %#
b1010 1#
0F"
1R"
b1011 '
b1011 -
#27
b1011 W"
b1010 V"
b10000 2
1*
#28
0*
b1100 )
b1100 /
b1100 :
b1100 F
b1100 R
b1100 ^
b1100 j
b1100 v
b1100 $"
b1100 0"
b1100 <"
b1100 H"
b1100 T"
b1100 `"
b1100 l"
b1100 x"
b1100 &#
b1100 2#
b1011 (
b1011 .
b1011 9
b1011 E
b1011 Q
b1011 ]
b1011 i
b1011 u
b1011 #"
b1011 /"
b1011 ;"
b1011 G"
b1011 S"
b1011 _"
b1011 k"
b1011 w"
b1011 %#
b1011 1#
0R"
1^"
b1100 '
b1100 -
#29
b1100 c"
b1011 b"
b10000 2
1*
#30
0*
b1101 )
b1101 /
b1101 :
b1101 F
b1101 R
b1101 ^
b1101 j
b1101 v
b1101 $"
b1101 0"
b1101 <"
b1101 H"
b1101 T"
b1101 `"
b1101 l"
b1101 x"
b1101 &#
b1101 2#
b1100 (
b1100 .
b1100 9
b1100 E
b1100 Q
b1100 ]
b1100 i
b1100 u
b1100 #"
b1100 /"
b1100 ;"
b1100 G"
b1100 S"
b1100 _"
b1100 k"
b1100 w"
b1100 %#
b1100 1#
0^"
1j"
b1101 '
b1101 -
#31
b1101 o"
b1100 n"
b10000 2
1*
#32
0*
b1110 )
b1110 /
b1110 :
b1110 F
b1110 R
b1110 ^
b1110 j
b1110 v
b1110 $"
b1110 0"
b1110 <"
b1110 H"
b1110 T"
b1110 `"
b1110 l"
b1110 x"
b1110 &#
b1110 2#
b1101 (
b1101 .
b1101 9
b1101 E
b1101 Q
b1101 ]
b1101 i
b1101 u
b1101 #"
b1101 /"
b1101 ;"
b1101 G"
b1101 S"
b1101 _"
b1101 k"
b1101 w"
b1101 %#
b1101 1#
0j"
1v"
b1110 '
b1110 -
#33
b1110 {"
b1101 z"
b10000 2
1*
#34
0*
b1111 )
b1111 /
b1111 :
b1111 F
b1111 R
b1111 ^
b1111 j
b1111 v
b1111 $"
b1111 0"
b1111 <"
b1111 H"
b1111 T"
b1111 `"
b1111 l"
b1111 x"
b1111 &#
b1111 2#
b1110 (
b1110 .
b1110 9
b1110 E
b1110 Q
b1110 ]
b1110 i
b1110 u
b1110 #"
b1110 /"
b1110 ;"
b1110 G"
b1110 S"
b1110 _"
b1110 k"
b1110 w"
b1110 %#
b1110 1#
0v"
1$#
b1111 '
b1111 -
#35
b1111 )#
b1110 (#
b10000 2
1*
#36
0*
b10000 )
b10000 /
b10000 :
b10000 F
b10000 R
b10000 ^
b10000 j
b10000 v
b10000 $"
b10000 0"
b10000 <"
b10000 H"
b10000 T"
b10000 `"
b10000 l"
b10000 x"
b10000 &#
b10000 2#
b1111 (
b1111 .
b1111 9
b1111 E
b1111 Q
b1111 ]
b1111 i
b1111 u
b1111 #"
b1111 /"
b1111 ;"
b1111 G"
b1111 S"
b1111 _"
b1111 k"
b1111 w"
b1111 %#
b1111 1#
0$#
10#
b10000 '
b10000 -
#37
b10000 5#
b1111 4#
b10000 2
1*
#38
0*
b0 4
b0 7
b0 @
b0 C
b0 L
b0 O
b0 X
b0 [
b0 d
b0 g
b0 p
b0 s
b0 |
b0 !"
b0 *"
b0 -"
b0 6"
b0 9"
b0 B"
b0 E"
b0 N"
b0 Q"
b0 Z"
b0 ]"
b0 f"
b0 i"
b0 r"
b0 u"
b0 ~"
b0 ##
b0 ,#
b0 /#
b0 0
b0 &
b0 ,
0+
#39
b10000 7#
b1111 +#
b1110 }"
b1101 q"
b1100 e"
b1011 Y"
b1010 M"
b1001 A"
b1000 5"
b111 )"
b110 {
b101 o
b100 c
b11 W
b10 K
b1 ?
b1 1
1*
#40
0*
b1 4
b1 7
b1 @
b1 C
b1 L
b1 O
b1 X
b1 [
b1 d
b1 g
b1 p
b1 s
b1 |
b1 !"
b1 *"
b1 -"
b1 6"
b1 9"
b1 B"
b1 E"
b1 N"
b1 Q"
b1 Z"
b1 ]"
b1 f"
b1 i"
b1 r"
b1 u"
b1 ~"
b1 ##
b1 ,#
b1 /#
b1 0
b1 &
b1 ,
#41
b1 >
b1 J
b1100101110011 K
b1 V
b1011010001111 W
b1 b
b1000010111101 c
b1 n
b11000010001 o
b1 z
b101001111111 {
b1 ("
b1101011010111 )"
b1 4"
b1000001111000 5"
b1 @"
b1110111111000 A"
b1 L"
b1011011000110 M"
b1 X"
b11101001100 Y"
b1 d"
b100111001011 e"
b1 p"
b100000111011 q"
b1 |"
b1100110000100 }"
b1 *#
b101100010001 +#
b1 6#
b1101100010010 7#
b10 1
1*
#42
0*
b10 4
b10 7
b10 @
b10 C
b10 L
b10 O
b10 X
b10 [
b10 d
b10 g
b10 p
b10 s
b10 |
b10 !"
b10 *"
b10 -"
b10 6"
b10 9"
b10 B"
b10 E"
b10 N"
b10 Q"
b10 Z"
b10 ]"
b10 f"
b10 i"
b10 r"
b10 u"
b10 ~"
b10 ##
b10 ,#
b10 /#
b10 0
b10 &
b10 ,
#43
b10 6#
b111111001110 7#
b10 *#
b101111001110 +#
b10 |"
b111010111110 }"
b10 p"
b1110111110100 q"
b10 d"
b1100100110 e"
b10 X"
b1100101011001 Y"
b10 L"
b111100110000 M"
b10 @"
b1001 A"
b10 4"
b11111100111 5"
b10 ("
b1101110000011 )"
b10 z
b111011100100 {
b10 n
b1110111111100 o
b10 b
b101100001101 c
b10 V
b100110100100 W
b10 J
b111100001010 K
b10 >
b11 1
1*
#44
0*
b11 4
b11 7
b11 @
b11 C
b11 L
b11 O
b11 X
b11 [
b11 d
b11 g
b11 p
b11 s
b11 |
b11 !"
b11 *"
b11 -"
b11 6"
b11 9"
b11 B"
b11 E"
b11 N"
b11 Q"
b11 Z"
b11 ]"
b11 f"
b11 i"
b11 r"
b11 u"
b11 ~"
b11 ##
b11 ,#
b11 /#
b11 0
b11 &
b11 ,
#45
b11 >
b11 J
b1011101011111 K
b11 V
b111111001010 W
b11 b
b100100011100 c
b11 n
b1011111110000 o
b11 z
b1000110100111 {
b11 ("
b1011010100010 )"
b11 4"
b1011111111111 5"
b11 @"
b1110111111000 A"
b11 L"
b1100101001 M"
b11 X"
b1011000011110 Y"
b11 d"
b1010101101 e"
b11 p"
b1010111000110 q"
b11 |"
b1110011010010 }"
b11 *#
b11100111001 +#
b11 6#
b110000000100 7#
b100 1
1*
#46
0*
b100 4
b100 7
b100 @
b100 C
b100 L
b100 O
b100 X
b100 [
b100 d
b100 g
b100 p
b100 s
b100 |
b100 !"
b100 *"
b100 -"
b100 6"
b100 9"
b100 B"
b100 E"
b100 N"
b100 Q"
b100 Z"
b100 ]"
b100 f"
b100 i"
b100 r"
b100 u"
b100 ~"
b100 ##
b100 ,#
b100 /#
b100 0
b100 &
b100 ,
#47
b100 6#
b1110010011000 7#
b100 *#
b1110111110010 +#
b100 |"
b10011111100 }"
b100 p"
b1101 q"
b100 d"
b1010101110010 e"
b100 X"
b1110111110110 Y"
b100 L"
b110000100010 M"
b100 @"
b1001 A"
b100 4"
b111001001100 5"
b100 ("
b1110111111010 )"
b100 z
b1001101001000 {
b100 n
b101 o
b100 b
b11100100110 c
b100 V
b1110111111110 W
b100 J
b1101001101110 K
b100 >
b101 1
1*
#48
0*
b101 4
b101 7
b101 @
b101 C
b101 L
b101 O
b101 X
b101 [
b101 d
b101 g
b101 p
b101 s
b101 |
b101 !"
b101 *"
b101 -"
b101 6"
b101 9"
b101 B"
b101 E"
b101 N"
b101 Q"
b101 Z"
b101 ]"
b101 f"
b101 i"
b101 r"
b101 u"
b101 ~"
b101 ##
b101 ,#
b101 /#
b101 0
b101 &
b101 ,
#49
b101 >
b101 J
b110110000000 K
b101 V
b11101110010 W
b101 b
b1010111000101 c
b101 n
b11000010001 o
b101 z
b110110101010 {
b101 ("
b1100101010 )"
b101 4"
b1101111001 5"
b101 @"
b1110111111000 A"
b101 L"
b1011010000011 M"
b101 X"
b1011010110101 Y"
b101 d"
b1100010110100 e"
b101 p"
b100000111011 q"
b101 |"
b1110000100000 }"
b101 *#
b1001011110000 +#
b101 6#
b1011100001111 7#
b110 1
1*
#50
0*
b110 4
b110 7
b110 @
b110 C
b110 L
b110 O
b110 X
b110 [
b110 d
b110 g
b110 p
b110 s
b110 |
b110 !"
b110 *"
b110 -"
b110 6"
b110 9"
b110 B"
b110 E"
b110 N"
b110 Q"
b110 Z"
b110 ]"
b110 f"
b110 i"
b110 r"
b110 u"
b110 ~"
b110 ##
b110 ,#
b110 /#
b110 0
b110 &
b110 ,
#51
b110 6#
b1110110110101 7#
b110 *#
b1001000110011 +#
b110 |"
b11001010100 }"
b110 p"
b1110111110100 q"
b110 d"
b111001 e"
b110 X"
b10010101000 Y"
b110 L"
b110010100000 M"
b110 @"
b1001 A"
b110 4"
b1110111011011 5"
b110 ("
b1001111110 )"
b110 z
b1110001101110 {
b110 n
b1110111111100 o
b110 b
b10011 c
b110 V
b1010001011101 W
b110 J
b1010010000111 K
b110 >
b111 1
1*
